{
    "id":"fc1eee7f-6435-4001-9cf6-6d24330d9b1c",
    "schema":"https://metadata.datadrivendiscovery.org/schemas/v0/pipeline.json",
    "created":"2019-06-05T03:44:33.899641Z",
    "inputs":[
        {
            "name":"input dataset"
        }
    ],
    "outputs":[
        {
            "data":"steps.4.produce",
            "name":"predictions of input dataset"
        }
    ],
    "steps":[
        {
            "type":"PRIMITIVE",
            "primitive":{
                "id":"f31f8c1f-d1c5-43e5-a4b2-2ae4a761ef2e",
                "version":"0.2.0",
                "python_path":"d3m.primitives.data_transformation.denormalize.Common",
                "name":"Denormalize datasets"
            },
            "arguments":{
                "inputs":{
                    "type":"CONTAINER",
                    "data":"inputs.0"
                }
            },
            "outputs":[
                {
                    "id":"produce"
                }
            ],
            "hyperparams":{
                "starting_resource":{
                    "type":"VALUE",
                    "data":null
                },
                "recursive":{
                    "type":"VALUE",
                    "data":true
                },
                "many_to_many":{
                    "type":"VALUE",
                    "data":false
                },
                "discard_not_joined_tabular_resources":{
                    "type":"VALUE",
                    "data":false
                }
            }
        },
        {
            "type":"PRIMITIVE",
            "primitive":{
                "id":"4b42ce1e-9b98-4a25-b68e-fad13311eb65",
                "version":"0.3.0",
                "python_path":"d3m.primitives.data_transformation.dataset_to_dataframe.Common",
                "name":"Extract a DataFrame from a Dataset"
            },
            "arguments":{
                "inputs":{
                    "type":"CONTAINER",
                    "data":"steps.0.produce"
                }
            },
            "outputs":[
                {
                    "id":"produce"
                }
            ]
        },
        {
            "type":"PRIMITIVE",
            "primitive":{
                "id":"4503a4c6-42f7-45a1-a1d4-ed69699cf5e1",
                "version":"0.3.0",
                "python_path":"d3m.primitives.data_transformation.extract_columns_by_semantic_types.Common",
                "name":"Extracts columns by semantic type"
            },
            "arguments":{
                "inputs":{
                    "type":"CONTAINER",
                    "data":"steps.1.produce"
                }
            },
            "outputs":[
                {
                    "id":"produce"
                }
            ],
            "hyperparams":{
                "semantic_types":{
                    "type":"VALUE",
                    "data":[
                        "https://metadata.datadrivendiscovery.org/types/TrueTarget"
                    ]
                }
            }
        },
        {
            "type":"PRIMITIVE",
            "primitive":{
                "id":"48572851-b86b-4fda-961d-f3f466adb58e",
                "version":"1.0.0",
                "python_path":"d3m.primitives.feature_construction.gcn_mixhop.DSBOX",
                "name":"GCN"
            },
            "arguments":{
                "inputs":{
                    "type":"CONTAINER",
                    "data":"steps.0.produce"
                },
                "outputs":{
                    "type":"CONTAINER",
                    "data":"steps.2.produce"
                }
            },
            "outputs":[
                {
                    "id":"produce"
                }
            ],
	     "hyperparams":{
		 "adjacency_order":{
		     "type":"VALUE",
		     "data":3}
	     }
        },
        {
            "type":"PRIMITIVE",
            "primitive":{
                "id":"1dd82833-5692-39cb-84fb-2455683075f3",
                "version":"2019.6.7",
                "python_path":"d3m.primitives.classification.random_forest.SKlearn",
                "name":"sklearn.ensemble.forest.RandomForestClassifier"
            },
            "arguments":{
                "inputs":{
                    "type":"CONTAINER",
                    "data":"steps.3.produce"
                },
                "outputs":{
                    "type":"CONTAINER",
                    "data":"steps.2.produce"
                }
            },
            "outputs":[
                {
                    "id":"produce"
                }
            ],
            "hyperparams":{
                "max_depth":{
                    "type":"VALUE",
                    "data":{
                        "case":"int",
                        "value":30
                    }
                },
                "min_samples_leaf":{
                    "type":"VALUE",
                    "data":{
                        "case":"absolute",
                        "value":2
                    }
                },
                "min_samples_split":{
                    "type":"VALUE",
                    "data":{
                        "case":"absolute",
                        "value":2
                    }
                },
                "max_features":{
                    "type":"VALUE",
                    "data":{
                        "case":"calculated",
                        "value":"sqrt"
                    }
                },
                "n_estimators":{
                    "type":"VALUE",
                    "data":100
                },
                "add_index_columns":{
                    "type":"VALUE",
                    "data":true
                },
                "use_semantic_types":{
                    "type":"VALUE",
                    "data":false
                },
                "error_on_no_input":{
                    "type":"VALUE",
                    "data":true
                }
            }
        }
    ],
    "name":"ISI_gcn:140244824113296",
    "description":"",
    "metric":"accuracy",
    "template_name":"ISI_gcn"
}
