{
    "id":"407cd681-8613-4a95-8b1a-93f352026388",
    "schema":"https://metadata.datadrivendiscovery.org/schemas/v0/pipeline.json",
    "created":"2019-06-01T06:13:36.502484Z",
    "inputs":[
        {
            "name":"input dataset"
        }
    ],
    "outputs":[
        {
            "data":"steps.6.produce",
            "name":"predictions of input dataset"
        }
    ],
    "steps":[
        {
            "type":"PRIMITIVE",
            "primitive":{
                "id":"f31f8c1f-d1c5-43e5-a4b2-2ae4a761ef2e",
                "version":"0.2.0",
                "python_path":"d3m.primitives.data_transformation.denormalize.Common",
                "name":"Denormalize datasets",
                "digest":"99c9167309bccb1a30ae0d38e35562f1ab4340c20eeb40074278908e74e01a0c"
            },
            "arguments":{
                "inputs":{
                    "type":"CONTAINER",
                    "data":"inputs.0"
                }
            },
            "outputs":[
                {
                    "id":"produce"
                }
            ]
        },
        {
            "type":"PRIMITIVE",
            "primitive":{
                "id":"4b42ce1e-9b98-4a25-b68e-fad13311eb65",
                "version":"0.3.0",
                "python_path":"d3m.primitives.data_transformation.dataset_to_dataframe.Common",
                "name":"Extract a DataFrame from a Dataset",
                "digest":"3cddf0ce62f0f2d3a5160472a5f6ddc672d5b278ecb13860d1034cafbb701c4f"
            },
            "arguments":{
                "inputs":{
                    "type":"CONTAINER",
                    "data":"steps.0.produce"
                }
            },
            "outputs":[
                {
                    "id":"produce"
                }
            ]
        },
        {
            "type":"PRIMITIVE",
            "primitive":{
                "id":"4503a4c6-42f7-45a1-a1d4-ed69699cf5e1",
                "version":"0.2.0",
                "python_path":"d3m.primitives.data_transformation.extract_columns_by_semantic_types.DataFrameCommon",
                "name":"Extracts columns by semantic type",
                "digest":"b908d9b8c4798b4c2787645a0007dd2720a166725f6cbf5918fa47e07001219f"
            },
            "arguments":{
                "inputs":{
                    "type":"CONTAINER",
                    "data":"steps.1.produce"
                }
            },
            "outputs":[
                {
                    "id":"produce"
                }
            ],
            "hyperparams":{
                "semantic_types":{
                    "type":"VALUE",
                    "data":[
                        "https://metadata.datadrivendiscovery.org/types/TrueTarget"
                    ]
                }
            }
        },
        {
            "type":"PRIMITIVE",
            "primitive":{
                "id":"7ddf2fd8-2f7f-4e53-96a7-0d9f5aeecf93",
                "version":"1.5.1",
                "python_path":"d3m.primitives.data_transformation.to_numeric.DSBOX",
                "name":"ISI DSBox To Numeric DataFrame",
                "digest":"18d17321f9da8a928559bbdae94ecdd570697119ac4bf90dc63af9da1c326693"
            },
            "arguments":{
                "inputs":{
                    "type":"CONTAINER",
                    "data":"steps.2.produce"
                }
            },
            "outputs":[
                {
                    "id":"produce"
                }
            ],
            "hyperparams":{
                "drop_non_numeric_columns":{
                    "type":"VALUE",
                    "data":false
                }
            }
        },
        {
            "type":"PRIMITIVE",
            "primitive":{
                "id":"dsbox-featurizer-timeseries-to-dataframe",
                "version":"1.5.1",
                "python_path":"d3m.primitives.data_preprocessing.time_series_to_list.DSBOX",
                "name":"DSBox Timeseries Featurizer dataframe to List Transformer",
                "digest":"ba1f213cb92a73995bf232fdb1b968d41bffd54444346189c30cc46dea52f4e0"
            },
            "arguments":{
                "inputs":{
                    "type":"CONTAINER",
                    "data":"steps.1.produce"
                }
            },
            "outputs":[
                {
                    "id":"produce"
                }
            ]
        },
        {
            "type":"PRIMITIVE",
            "primitive":{
                "id":"dsbox.timeseries_featurization.random_projection",
                "version":"1.5.1",
                "python_path":"d3m.primitives.feature_extraction.random_projection_timeseries_featurization.DSBOX",
                "name":"DSBox random projection timeseries featurization ",
                "digest":"9bdf12d6b5226fe2144063454f74ae1eb3a5d5d4e51aadedae06b674ebe68f64"
            },
            "arguments":{
                "inputs":{
                    "type":"CONTAINER",
                    "data":"steps.4.produce"
                }
            },
            "outputs":[
                {
                    "id":"produce"
                }
            ],
            "hyperparams":{
                "generate_metadata":{
                    "type":"VALUE",
                    "data":true
                }
            }
        },
        {
            "type":"PRIMITIVE",
            "primitive":{
                "id":"1dd82833-5692-39cb-84fb-2455683075f3",
                "version":"2019.4.4",
                "python_path":"d3m.primitives.classification.random_forest.SKlearn",
                "name":"sklearn.ensemble.forest.RandomForestClassifier",
                "digest":"b1c373d38eeffe7ca7e2fe12b7cae22b2518b9bef3cbf4c7b9167af3a972bee3"
            },
            "arguments":{
                "inputs":{
                    "type":"CONTAINER",
                    "data":"steps.5.produce"
                },
                "outputs":{
                    "type":"CONTAINER",
                    "data":"steps.3.produce"
                }
            },
            "outputs":[
                {
                    "id":"produce"
                }
            ],
            "hyperparams":{
                "add_index_columns":{
                    "type":"VALUE",
                    "data":true
                },
                "use_semantic_types":{
                    "type":"VALUE",
                    "data":true
                }
            }
        }
    ],
    "name":"Default_timeseries_collection_template:139808739436944",
    "description":"",
    "digest":"015deee21e11cdbaae6a74d1f560c6062bf2dd8667c3b0aa1008bbdde6096944"
}