{
    "id": "53f20498-672d-40aa-8841-f7a9541765a3",
    "schema": "https://metadata.datadrivendiscovery.org/schemas/v0/pipeline.json",
    "created": "2019-06-06T22:44:04.077663Z",
    "inputs": [
        {
            "name": "inputs"
        }
    ],
    "outputs": [
        {
            "data": "steps.0.produce",
            "name": "results"
        }
    ],
    "steps": [
        {
            "type": "PRIMITIVE",
            "primitive": {
                "id": "36d5472c-e0a4-4ed6-a1d0-2665feacff39",
                "version": "1.4.8",
                "python_path": "d3m.primitives.classification.gaussian_classification.MeanBaseline",
                "name": "Mean Baseline"
            },
            "arguments": {
                "inputs": {
                    "type": "CONTAINER",
                    "data": "inputs.0"
                }
            },
            "outputs": [
                {
                    "id": "produce"
                }
            ]
        }
    ]
}