{
    "id": "f9ccb1b6-f2dc-4756-8740-288fd5d3252e",
    "schema": "https://metadata.datadrivendiscovery.org/schemas/v0/pipeline.json",
    "created": "2019-06-13T23:49:43.502032Z",
    "inputs": [
        {
            "name": "inputs"
        }
    ],
    "outputs": [
        {
            "data": "steps.3.produce",
            "name": "output"
        }
    ],
    "steps": [
        {
            "type": "PRIMITIVE",
            "primitive": {
                "id": "f2a0cf71-0f61-41a7-a0ad-b907083ae56c",
                "version": "0.1.0",
                "python_path": "d3m.primitives.data_preprocessing.audio_loader.DistilAudioDatasetLoader",
                "name": "Load audio collection from dataset into a single dataframe",
                "digest": "62152f054784342e5911288e72fc8fcba42d2603c00f037ce21ca2baaafc3fbd"
            },
            "arguments": {
                "inputs": {
                    "type": "CONTAINER",
                    "data": "inputs.0"
                }
            },
            "outputs": [
                {
                    "id": "produce"
                },
                {
                    "id": "produce_target"
                },
                {
                    "id": "produce_collection"
                }
            ]
        },
        {
            "type": "PRIMITIVE",
            "primitive": {
                "id": "f2f149c8-a984-4f5b-8a9b-2f13ee0cf16d",
                "version": "0.1.0",
                "python_path": "d3m.primitives.feature_extraction.audio_transfer.DistilAudioTransfer",
                "name": "Audio Transfer",
                "digest": "d4bb9a855c86b148be47bc2a60fb556fa8537af30950a2b82363d2c5966395e1"
            },
            "arguments": {
                "inputs": {
                    "type": "CONTAINER",
                    "data": "steps.0.produce_collection"
                }
            },
            "outputs": [
                {
                    "id": "produce"
                }
            ]
        },
        {
            "type": "PRIMITIVE",
            "primitive": {
                "id": "e0ad06ce-b484-46b0-a478-c567e1ea7e02",
                "version": "0.1.0",
                "python_path": "d3m.primitives.learner.random_forest.DistilEnsembleForest",
                "name": "EnsembleForest",
                "digest": "076ef68b0df6bfda244f03dc6e7a3a6aab6d79eba5cba4a7c3073bd1a20b7ae1"
            },
            "arguments": {
                "inputs": {
                    "type": "CONTAINER",
                    "data": "steps.1.produce"
                },
                "outputs": {
                    "type": "CONTAINER",
                    "data": "steps.0.produce_target"
                }
            },
            "outputs": [
                {
                    "id": "produce"
                }
            ],
            "hyperparams": {
                "metric": {
                    "type": "VALUE",
                    "data": "accuracy"
                }
            }
        },
        {
            "type": "PRIMITIVE",
            "primitive": {
                "id": "8d38b340-f83f-4877-baaa-162f8e551736",
                "version": "0.3.0",
                "python_path": "d3m.primitives.data_transformation.construct_predictions.DataFrameCommon",
                "name": "Construct pipeline predictions output",
                "digest": "cfb2d595652c4ae0d24e67d4cb8e4916c9f3c2753eaccc2935263d054b3682fa"
            },
            "arguments": {
                "inputs": {
                    "type": "CONTAINER",
                    "data": "steps.2.produce"
                },
                "reference": {
                    "type": "CONTAINER",
                    "data": "steps.0.produce_target"
                }
            },
            "outputs": [
                {
                    "id": "produce"
                }
            ],
            "hyperparams": {
                "use_columns": {
                    "type": "VALUE",
                    "data": [
                        0,
                        1
                    ]
                }
            }
        }
    ],
    "digest": "b8527ed59166db4474aec556cddf3fcaa296db8cae0b3e8934da73eb1bd7f92f"
}
